<mxfile host="www.draw.io" modified="2019-10-23T10:14:00.587Z" agent="Mozilla/5.0 (X11; Linux x86_64) AppleWebKit/537.36 (KHTML, like Gecko) Ubuntu Chromium/77.0.3865.90 Chrome/77.0.3865.90 Safari/537.36" etag="jSKbMpSQOn1Bm6dwgG61" version="12.1.3" type="gitlab" pages="1">
  <diagram id="J5VjdBLeXfY2LjNSPCUg" name="Page-1">
    <mxGraphModel dx="1475" dy="804" grid="0" gridSize="10" guides="1" tooltips="1" connect="1" arrows="1" fold="1" page="1" pageScale="1" pageWidth="850" pageHeight="1100" background="#A3A3A3" math="0" shadow="0">
      <root>
        <mxCell id="0"/>
        <mxCell id="1" parent="0"/>
        <mxCell id="P6eXg1Z5VRQ4xwycqEsS-7" value="" style="rounded=1;arcSize=10;dashed=1;strokeColor=#000000;fillColor=none;gradientColor=none;dashPattern=8 3 1 3;strokeWidth=2;" vertex="1" parent="1">
          <mxGeometry x="537" y="40" width="184" height="247" as="geometry"/>
        </mxCell>
        <mxCell id="P6eXg1Z5VRQ4xwycqEsS-3" value="" style="edgeStyle=orthogonalEdgeStyle;rounded=0;orthogonalLoop=1;jettySize=auto;html=1;exitX=1;exitY=0.5;exitDx=0;exitDy=0;" edge="1" parent="1" source="P6eXg1Z5VRQ4xwycqEsS-1" target="P6eXg1Z5VRQ4xwycqEsS-2">
          <mxGeometry relative="1" as="geometry">
            <mxPoint x="345" y="110.5" as="sourcePoint"/>
          </mxGeometry>
        </mxCell>
        <mxCell id="P6eXg1Z5VRQ4xwycqEsS-1" value="&lt;font style=&quot;font-size: 24px&quot;&gt;&lt;b&gt;PID&lt;/b&gt;&lt;/font&gt;" style="rounded=1;whiteSpace=wrap;html=1;fillColor=#647687;strokeColor=#314354;fontColor=#ffffff;" vertex="1" parent="1">
          <mxGeometry x="177" y="80.5" width="120" height="60" as="geometry"/>
        </mxCell>
        <mxCell id="P6eXg1Z5VRQ4xwycqEsS-8" value="" style="edgeStyle=orthogonalEdgeStyle;rounded=0;orthogonalLoop=1;jettySize=auto;html=1;" edge="1" parent="1" source="P6eXg1Z5VRQ4xwycqEsS-2" target="P6eXg1Z5VRQ4xwycqEsS-4">
          <mxGeometry relative="1" as="geometry"/>
        </mxCell>
        <mxCell id="P6eXg1Z5VRQ4xwycqEsS-2" value="&lt;font style=&quot;font-size: 24px&quot;&gt;&lt;b&gt;Motor Controller&lt;/b&gt;&lt;/font&gt;" style="rounded=1;whiteSpace=wrap;html=1;fillColor=#647687;strokeColor=#314354;fontColor=#ffffff;" vertex="1" parent="1">
          <mxGeometry x="353.5" y="80.5" width="120" height="60" as="geometry"/>
        </mxCell>
        <mxCell id="P6eXg1Z5VRQ4xwycqEsS-13" style="edgeStyle=orthogonalEdgeStyle;rounded=0;orthogonalLoop=1;jettySize=auto;html=1;exitX=1;exitY=0.5;exitDx=0;exitDy=0;entryX=1;entryY=0.5;entryDx=0;entryDy=0;" edge="1" parent="1" source="P6eXg1Z5VRQ4xwycqEsS-4" target="P6eXg1Z5VRQ4xwycqEsS-12">
          <mxGeometry relative="1" as="geometry">
            <Array as="points">
              <mxPoint x="750" y="111"/>
              <mxPoint x="750" y="236"/>
            </Array>
          </mxGeometry>
        </mxCell>
        <mxCell id="P6eXg1Z5VRQ4xwycqEsS-4" value="&lt;font style=&quot;font-size: 24px&quot;&gt;&lt;b&gt;Motor&lt;/b&gt;&lt;/font&gt;" style="rounded=1;whiteSpace=wrap;html=1;fillColor=#647687;strokeColor=#314354;fontColor=#ffffff;" vertex="1" parent="1">
          <mxGeometry x="567" y="81" width="120" height="60" as="geometry"/>
        </mxCell>
        <mxCell id="P6eXg1Z5VRQ4xwycqEsS-14" style="edgeStyle=orthogonalEdgeStyle;rounded=0;orthogonalLoop=1;jettySize=auto;html=1;exitX=0;exitY=0.5;exitDx=0;exitDy=0;entryX=0;entryY=0.5;entryDx=0;entryDy=0;" edge="1" parent="1" source="P6eXg1Z5VRQ4xwycqEsS-12" target="P6eXg1Z5VRQ4xwycqEsS-1">
          <mxGeometry relative="1" as="geometry">
            <Array as="points">
              <mxPoint x="145" y="236"/>
              <mxPoint x="145" y="111"/>
            </Array>
          </mxGeometry>
        </mxCell>
        <mxCell id="P6eXg1Z5VRQ4xwycqEsS-12" value="&lt;font style=&quot;font-size: 24px&quot;&gt;&lt;b&gt;Encoder&lt;/b&gt;&lt;/font&gt;" style="rounded=1;whiteSpace=wrap;html=1;fillColor=#647687;strokeColor=#314354;fontColor=#ffffff;" vertex="1" parent="1">
          <mxGeometry x="567" y="206" width="120" height="60" as="geometry"/>
        </mxCell>
        <mxCell id="P6eXg1Z5VRQ4xwycqEsS-15" value="&lt;b&gt;DC Motor with Encoder&lt;/b&gt;" style="text;html=1;resizable=0;points=[];autosize=1;align=left;verticalAlign=top;spacingTop=-4;" vertex="1" parent="1">
          <mxGeometry x="558.5" y="47" width="143" height="14" as="geometry"/>
        </mxCell>
        <mxCell id="P6eXg1Z5VRQ4xwycqEsS-16" value="" style="endArrow=block;endFill=1;endSize=6;html=1;" edge="1" parent="1">
          <mxGeometry width="100" relative="1" as="geometry">
            <mxPoint x="45" y="110.5" as="sourcePoint"/>
            <mxPoint x="145" y="110.5" as="targetPoint"/>
          </mxGeometry>
        </mxCell>
        <mxCell id="P6eXg1Z5VRQ4xwycqEsS-17" value="" style="endArrow=block;endFill=1;endSize=6;html=1;" edge="1" parent="1">
          <mxGeometry width="100" relative="1" as="geometry">
            <mxPoint x="743" y="111" as="sourcePoint"/>
            <mxPoint x="801" y="111" as="targetPoint"/>
          </mxGeometry>
        </mxCell>
        <mxCell id="P6eXg1Z5VRQ4xwycqEsS-19" value="" style="endArrow=block;endFill=1;endSize=6;html=1;" edge="1" parent="1">
          <mxGeometry width="100" relative="1" as="geometry">
            <mxPoint x="444.5" y="236" as="sourcePoint"/>
            <mxPoint x="325.5" y="235.5" as="targetPoint"/>
          </mxGeometry>
        </mxCell>
        <mxCell id="P6eXg1Z5VRQ4xwycqEsS-20" value="Ref. Speed" style="text;html=1;resizable=0;points=[];autosize=1;align=left;verticalAlign=top;spacingTop=-4;" vertex="1" parent="1">
          <mxGeometry x="48" y="88" width="70" height="14" as="geometry"/>
        </mxCell>
        <mxCell id="P6eXg1Z5VRQ4xwycqEsS-21" value="PWM" style="text;html=1;resizable=0;points=[];autosize=1;align=left;verticalAlign=top;spacingTop=-4;" vertex="1" parent="1">
          <mxGeometry x="306" y="87.5" width="39" height="14" as="geometry"/>
        </mxCell>
        <mxCell id="P6eXg1Z5VRQ4xwycqEsS-22" value="Voltage" style="text;html=1;resizable=0;points=[];autosize=1;align=left;verticalAlign=top;spacingTop=-4;" vertex="1" parent="1">
          <mxGeometry x="480.5" y="88" width="50" height="14" as="geometry"/>
        </mxCell>
        <mxCell id="P6eXg1Z5VRQ4xwycqEsS-23" value="Measured Speed" style="text;html=1;resizable=0;points=[];autosize=1;align=left;verticalAlign=top;spacingTop=-4;" vertex="1" parent="1">
          <mxGeometry x="435.5" y="241" width="101" height="14" as="geometry"/>
        </mxCell>
        <mxCell id="P6eXg1Z5VRQ4xwycqEsS-24" value="Speed" style="text;html=1;resizable=0;points=[];autosize=1;align=left;verticalAlign=top;spacingTop=-4;" vertex="1" parent="1">
          <mxGeometry x="755" y="87.5" width="45" height="14" as="geometry"/>
        </mxCell>
        <mxCell id="P6eXg1Z5VRQ4xwycqEsS-71" style="edgeStyle=orthogonalEdgeStyle;rounded=0;orthogonalLoop=1;jettySize=auto;html=1;exitX=1;exitY=0.5;exitDx=0;exitDy=0;entryX=0;entryY=0.5;entryDx=0;entryDy=0;" edge="1" parent="1" source="P6eXg1Z5VRQ4xwycqEsS-66" target="P6eXg1Z5VRQ4xwycqEsS-68">
          <mxGeometry relative="1" as="geometry"/>
        </mxCell>
        <mxCell id="P6eXg1Z5VRQ4xwycqEsS-66" value="&lt;font style=&quot;font-size: 24px&quot;&gt;&lt;b&gt;C&lt;/b&gt;&lt;/font&gt;" style="rounded=1;whiteSpace=wrap;html=1;fillColor=#647687;strokeColor=#314354;fontColor=#ffffff;" vertex="1" parent="1">
          <mxGeometry x="256" y="343.5" width="120" height="60" as="geometry"/>
        </mxCell>
        <mxCell id="P6eXg1Z5VRQ4xwycqEsS-72" style="edgeStyle=orthogonalEdgeStyle;rounded=0;orthogonalLoop=1;jettySize=auto;html=1;entryX=0;entryY=0.5;entryDx=0;entryDy=0;" edge="1" parent="1" target="P6eXg1Z5VRQ4xwycqEsS-66">
          <mxGeometry relative="1" as="geometry">
            <mxPoint x="424" y="435" as="sourcePoint"/>
            <Array as="points">
              <mxPoint x="187" y="435"/>
              <mxPoint x="187" y="374"/>
            </Array>
          </mxGeometry>
        </mxCell>
        <mxCell id="P6eXg1Z5VRQ4xwycqEsS-70" style="edgeStyle=orthogonalEdgeStyle;rounded=0;orthogonalLoop=1;jettySize=auto;html=1;exitX=1;exitY=0.5;exitDx=0;exitDy=0;" edge="1" parent="1" source="P6eXg1Z5VRQ4xwycqEsS-68">
          <mxGeometry relative="1" as="geometry">
            <mxPoint x="422" y="436" as="targetPoint"/>
            <Array as="points">
              <mxPoint x="686" y="374"/>
              <mxPoint x="686" y="436"/>
            </Array>
          </mxGeometry>
        </mxCell>
        <mxCell id="P6eXg1Z5VRQ4xwycqEsS-68" value="&lt;font style=&quot;font-size: 24px&quot;&gt;&lt;b&gt;G&lt;/b&gt;&lt;/font&gt;" style="rounded=1;whiteSpace=wrap;html=1;fillColor=#647687;strokeColor=#314354;fontColor=#ffffff;" vertex="1" parent="1">
          <mxGeometry x="498.5" y="343.5" width="120" height="60" as="geometry"/>
        </mxCell>
        <mxCell id="P6eXg1Z5VRQ4xwycqEsS-73" value="" style="endArrow=block;endFill=1;endSize=6;html=1;" edge="1" parent="1">
          <mxGeometry width="100" relative="1" as="geometry">
            <mxPoint x="678" y="374" as="sourcePoint"/>
            <mxPoint x="736" y="374" as="targetPoint"/>
          </mxGeometry>
        </mxCell>
        <mxCell id="P6eXg1Z5VRQ4xwycqEsS-74" value="" style="endArrow=block;endFill=1;endSize=6;html=1;" edge="1" parent="1">
          <mxGeometry width="100" relative="1" as="geometry">
            <mxPoint x="132" y="373.5" as="sourcePoint"/>
            <mxPoint x="190" y="373.5" as="targetPoint"/>
          </mxGeometry>
        </mxCell>
        <mxCell id="P6eXg1Z5VRQ4xwycqEsS-75" value="r(t)&lt;br&gt;" style="text;html=1;resizable=0;points=[];autosize=1;align=left;verticalAlign=top;spacingTop=-4;" vertex="1" parent="1">
          <mxGeometry x="93" y="359.5" width="25" height="14" as="geometry"/>
        </mxCell>
        <mxCell id="P6eXg1Z5VRQ4xwycqEsS-76" value="y(t)" style="text;html=1;resizable=0;points=[];autosize=1;align=left;verticalAlign=top;spacingTop=-4;" vertex="1" parent="1">
          <mxGeometry x="773" y="359.5" width="27" height="14" as="geometry"/>
        </mxCell>
        <mxCell id="P6eXg1Z5VRQ4xwycqEsS-77" value="u(t)" style="text;html=1;resizable=0;points=[];autosize=1;align=left;verticalAlign=top;spacingTop=-4;" vertex="1" parent="1">
          <mxGeometry x="421.5" y="352.5" width="28" height="14" as="geometry"/>
        </mxCell>
        <mxCell id="P6eXg1Z5VRQ4xwycqEsS-78" value="e(t)" style="text;html=1;resizable=0;points=[];autosize=1;align=left;verticalAlign=top;spacingTop=-4;" vertex="1" parent="1">
          <mxGeometry x="209" y="352.5" width="28" height="14" as="geometry"/>
        </mxCell>
      </root>
    </mxGraphModel>
  </diagram>
</mxfile>
